^C:\USERS\DBERNARD456\GITCEGEP\TELEC\TELEC\TELECOMVB\TP2\PARTIEB\CHAT.RESX
^C:\USERS\DBERNARD456\GITCEGEP\TELEC\TELEC\TELECOMVB\TP2\PARTIEB\CONFIGFORM.RESX
^C:\USERS\DBERNARD456\GITCEGEP\TELEC\TELEC\TELECOMVB\TP2\PARTIEA\COMM.RESX
^C:\USERS\DBERNARD456\GITCEGEP\TELEC\TELEC\TELECOMVB\TP2\MY PROJECT\RESOURCES.RESX
